<svg xmlns="http://www.w3.org/2000/svg" width="15.5" height="17.5" viewBox="0 0 15.5 17.5">
  <g id="Group_308" data-name="Group 308" transform="translate(0.75 0.75)">
    <g id="Group_252" data-name="Group 252">
      <path id="Vector_29" data-name="Vector 29" d="M6,0H0V16H6" fill="none" stroke="#6e4a9c" stroke-linecap="round" stroke-linejoin="round" stroke-width="1.5"/>
      <g id="Group_251" data-name="Group 251" transform="translate(3 4)">
        <path id="Vector_30" data-name="Vector 30" d="M0,0H11" transform="translate(0 4)" fill="none" stroke="#6e4a9c" stroke-linecap="round" stroke-linejoin="round" stroke-width="1.5"/>
        <path id="Vector_31" data-name="Vector 31" d="M0,0,4,4,0,8" transform="translate(7)" fill="none" stroke="#6e4a9c" stroke-linecap="round" stroke-linejoin="round" stroke-width="1.5"/>
      </g>
    </g>
  </g>
</svg>
